<svg width="30" height="30" viewBox="0 0 30 30" fill="none" xmlns="http://www.w3.org/2000/svg">
<path d="M29.5 11.499V28.499C29.4984 29.0506 29.0516 29.4974 28.5 29.499H1.50002C0.948418 29.4974 0.501641 29.0506 0.5 28.499V11.499L0.71 11.339L0.83498 11.499H29.165L29.29 11.339L29.5 11.499Z" fill="#F7A4A4"/>
<path d="M28.0001 11.499V28.499C27.9984 29.0506 27.5516 29.4974 27 29.499H1.50004C1.46664 29.5 1.43318 29.4983 1.40002 29.494C1.37635 29.4935 1.35285 29.4902 1.33 29.484C1.07523 29.4394 0.847596 29.2979 0.695018 29.089C0.567225 28.919 0.498729 28.7117 0.500018 28.4991V11.499H27.665L27.79 11.339L28.0001 11.499Z" fill="#F2E3E3"/>
<path d="M29.2902 11.339L29.1652 11.499L15.5002 21.999H14.5002L0.835186 11.499L0.710205 11.339L5.50019 7.61402L12.0902 2.49902L14.3952 0.708977C14.7499 0.428958 15.2504 0.428958 15.6052 0.708977L17.9102 2.49896L24.5002 7.61396L29.2902 11.339Z" fill="#F2E3E3"/>
<path d="M24.5 3.49898V15.084L23 16.239L15.5 21.999H14.5L5.5 15.084V3.49898C5.50164 2.94738 5.94842 2.5006 6.50002 2.49896H23.5C24.0517 2.50066 24.4984 2.94738 24.5 3.49898Z" fill="#F7A4A4"/>
<path d="M23 3.49898V16.239L15.5 21.999H14.5L5.5 15.084V3.49898C5.50164 2.94738 5.94842 2.5006 6.50002 2.49896H22C22.5517 2.50066 22.9984 2.94738 23 3.49898Z" fill="#F2E3E3"/>
<path d="M29.3053 29.089C29.1186 29.3473 28.819 29.5 28.5002 29.499H27.0002C27.5518 29.4973 27.9986 29.0506 28.0003 28.499V28.074L29.3053 29.089Z" fill="#F7A4A4"/>
<path d="M28.0001 28.074V28.499C27.9985 29.0506 27.5517 29.4974 27.0001 29.499H1.50009C1.46669 29.5 1.43323 29.4983 1.40007 29.494C1.3764 29.4935 1.3529 29.4902 1.33005 29.484C1.07528 29.4394 0.847646 29.2979 0.695068 29.089L12.1501 20.194L14.3951 18.449C14.7498 18.169 15.2503 18.169 15.6051 18.449L17.8501 20.194L28.0001 28.074Z" fill="#F2E3E3"/>
<path d="M15.7501 0.821477L15.6051 0.708977C15.2503 0.428958 14.7498 0.428958 14.395 0.708977L12.0901 2.49902H13.5901L15.7501 0.821477Z" fill="white"/>
<path d="M0.564697 28.841C0.595518 28.926 0.637764 29.0064 0.690205 29.08C0.692725 29.0825 0.693193 29.086 0.695186 29.089C0.70667 29.105 0.72167 29.118 0.734678 29.133C0.758115 29.1633 0.783545 29.192 0.810674 29.2191C0.831182 29.239 0.854678 29.2556 0.877178 29.2741C0.903135 29.2965 0.930322 29.3173 0.958682 29.3366C0.983701 29.3531 1.00866 29.3656 1.03819 29.3801C1.06767 29.3945 1.0972 29.4126 1.12919 29.4256C1.16118 29.4386 1.18468 29.4431 1.21222 29.4516C1.24673 29.463 1.28177 29.4727 1.31722 29.4806C1.32161 29.4816 1.32595 29.4827 1.33022 29.4841C1.35308 29.4903 1.37657 29.4936 1.40024 29.4942C1.43341 29.4984 1.46681 29.5001 1.50026 29.4991H3.00026C2.96686 29.5001 2.93341 29.4984 2.90024 29.4942C2.87657 29.4936 2.85308 29.4903 2.83022 29.4841C2.82595 29.4827 2.82161 29.4816 2.81722 29.4806C2.78177 29.4727 2.74673 29.463 2.71222 29.4516C2.68474 29.4431 2.65573 29.4366 2.62919 29.4256C2.6027 29.4146 2.56819 29.3956 2.53819 29.3801C2.50819 29.3645 2.4837 29.3531 2.45868 29.3366C2.43032 29.3173 2.40313 29.2965 2.37718 29.2741C2.35468 29.2556 2.33118 29.2391 2.31067 29.2191C2.28349 29.192 2.25811 29.1633 2.23468 29.133C2.22167 29.118 2.20667 29.105 2.19519 29.089C2.19519 29.0861 2.19519 29.0825 2.1902 29.08C2.13776 29.0064 2.09552 28.926 2.0647 28.841C2.0572 28.82 2.05122 28.799 2.04472 28.7775C2.01665 28.6873 2.00165 28.5935 2.00024 28.499V11.499L2.21024 11.339L7.00022 7.61402V3.49898C7.00186 2.94738 7.44864 2.5006 8.00024 2.49896H6.50024C5.94864 2.5006 5.50186 2.94738 5.50022 3.49898V7.61396L0.710244 11.3389L0.500244 11.499V28.4989C0.50165 28.5935 0.51665 28.6872 0.544717 28.7774C0.550225 28.799 0.557197 28.82 0.564697 28.841Z" fill="white"/>
<path d="M1.00002 11.499V17.999V28.499H0V17.999V11.499H1.00002Z" fill="white"/>
<path d="M0.499962 15.999C0.632326 15.9971 0.759064 15.9453 0.854982 15.854C1.04834 15.6568 1.04834 15.3412 0.854982 15.144L0.779982 15.084C0.752091 15.0651 0.721857 15.0499 0.689982 15.039C0.661622 15.0246 0.631329 15.0145 0.599982 15.009C0.566935 15.0034 0.533478 15.0001 0.499962 14.999C0.367599 15.0009 0.240861 15.0527 0.144943 15.144C0.099767 15.1918 0.0640834 15.2478 0.0399428 15.309C-0.0354673 15.4955 0.00560688 15.7089 0.144943 15.854C0.192755 15.8992 0.248771 15.9348 0.309943 15.959C0.370119 15.9846 0.43463 15.9982 0.499962 15.999Z" fill="#FF4242"/>
<path d="M29.9735 11.368C29.9667 11.3385 29.9571 11.3098 29.945 11.282C29.931 11.2549 29.9143 11.2292 29.8951 11.2055C29.8758 11.1773 29.8535 11.1513 29.8286 11.128C29.8205 11.121 29.8171 11.1114 29.8086 11.1045L25.0001 7.36998V3.49952C25.0001 2.67112 24.3285 1.99952 23.5001 1.99952H18.0816L15.912 0.315062C15.3761 -0.102946 14.6245 -0.102946 14.0885 0.315062L11.9185 1.99957H6.49998C5.67158 1.99957 4.99998 2.67118 4.99998 3.49957V7.3701L0.193008 11.1045C0.0731836 11.2001 0.00474609 11.3462 0.00802734 11.4995H0V13.4995C0 13.7756 0.223887 13.9995 0.49998 13.9995C0.776074 13.9995 0.999961 13.7756 0.999961 13.4995V12.261L9.19348 18.6235C9.41174 18.7928 9.72598 18.753 9.89525 18.5347C10.0645 18.3165 10.0248 18.0022 9.80648 17.833L1.48248 11.3695L4.99998 8.63602V12.4995C4.99998 12.7757 5.22387 12.9995 5.49996 12.9995C5.77611 12.9995 5.99994 12.7757 5.99994 12.4995V3.49952C5.99994 3.22336 6.22383 2.99953 6.49992 2.99953H23.4999C23.7761 2.99953 23.9999 3.22342 23.9999 3.49952V12.4995C23.9999 12.7757 24.2237 12.9995 24.4999 12.9995C24.776 12.9995 24.9998 12.7757 24.9998 12.4995V8.63602L28.5173 11.3695L20.1789 17.8446C20.0354 17.9532 19.9614 18.1307 19.9852 18.3091C20.009 18.4875 20.1268 18.6394 20.2938 18.7067C20.4607 18.774 20.651 18.7465 20.7919 18.6345L28.9999 12.261V28.22L15.912 18.055C15.3759 17.6374 14.6246 17.6374 14.0885 18.055L1.00002 28.22V17.4996C1.00002 17.2234 0.776133 16.9996 0.500039 16.9996C0.223945 16.9996 0 17.2234 0 17.4996V28.4995C0.000703125 28.8176 0.103594 29.127 0.293496 29.382C0.296484 29.3865 0.297012 29.392 0.300469 29.396C0.303984 29.4 0.311484 29.4045 0.316465 29.41C0.597656 29.7801 1.03518 29.998 1.49994 29.9995H28.4999C28.966 29.9981 29.4047 29.7792 29.6859 29.4076C29.6899 29.4026 29.696 29.4011 29.6994 29.3961C29.7029 29.3911 29.7034 29.3866 29.7064 29.3821C29.8963 29.127 29.9992 28.8176 29.9999 28.4996V11.4996C29.9999 11.4891 29.9944 11.48 29.9939 11.4696C29.9909 11.435 29.984 11.401 29.9735 11.368ZM14.7 1.10403C14.8746 0.965277 15.1219 0.965277 15.2965 1.10403L16.45 1.99952H13.55L14.7 1.10403ZM14.7 18.844C14.8747 18.7055 15.1218 18.7055 15.2965 18.844L28.374 28.9995H1.62598L14.7 18.844Z" fill="#FF4242"/>
<path d="M15 7.99898C15.2761 7.99898 15.5 7.7751 15.5 7.499C15.5 7.22285 15.2761 6.99902 15 6.99902C13.6573 6.99603 12.4761 7.88554 12.1082 9.17683C11.7402 10.4681 12.275 11.8467 13.4176 12.5519C14.5601 13.2571 16.0321 13.1173 17.0215 12.2095C17.1303 13.2669 18.0494 14.0531 19.1109 13.9969C20.1724 13.9407 21.0033 13.062 21 11.999V9.99902C21 6.68531 18.3137 3.99902 15 3.99902C11.6863 3.99902 9 6.68531 9 9.99902C9 13.3127 11.6863 15.999 15 15.999C15.2761 15.999 15.5 15.7751 15.5 15.499C15.5 15.2229 15.2761 14.9991 15 14.9991C12.2386 14.9991 10 12.7605 10 9.99908C10 7.23767 12.2386 4.99898 15 4.99898C17.7614 4.99898 20 7.23756 20 9.99896V11.9989C20 12.5512 19.5523 12.999 19 12.999C18.4476 12.999 17.9999 12.5512 17.9999 11.9989V9.99902C17.9999 9.72287 17.7761 9.49904 17.5 9.49904C17.2238 9.49904 17 9.72293 17 9.99902C17 11.1036 16.1045 11.999 15 11.999C13.8954 11.999 13 11.1036 13 9.99902C13 8.89447 13.8954 7.99898 15 7.99898Z" fill="#FF4242"/>
</svg>
