<svg width="31" height="41" viewBox="0 0 31 41" fill="none" xmlns="http://www.w3.org/2000/svg">
<path d="M27.7385 21.6754C27.8589 21.1118 28.0205 20.5576 28.2228 20.018C28.4517 19.5186 28.7181 19.0374 29.0199 18.5786C29.8436 17.4817 30.3379 16.1731 30.4447 14.8056C30.3384 13.4381 29.8447 12.1291 29.021 11.0321C28.7191 10.5734 28.4527 10.0922 28.2238 9.59272C28.0215 9.05365 27.8599 8.49998 27.74 7.93693C27.5419 6.60855 26.9768 5.36149 26.1087 4.33705C25.0843 3.46902 23.8383 2.90388 22.5099 2.70577C21.9463 2.58586 21.3927 2.42425 20.8531 2.22197C20.3536 1.9931 19.8724 1.72669 19.4136 1.42483C18.3162 0.600587 17.0071 0.106354 15.6391 0C14.2716 0.106354 12.9631 0.600066 11.8662 1.42327C11.4069 1.72565 10.9257 1.99205 10.4262 2.22092C9.88714 2.42268 9.33348 2.58482 8.77043 2.70473C7.44204 2.90284 6.19551 3.46745 5.17055 4.33549C4.30251 5.35993 3.7379 6.60646 3.53979 7.93432C3.41936 8.49842 3.25774 9.05208 3.05546 9.59167C2.82659 10.0911 2.56018 10.5723 2.25833 11.0311C1.43408 12.1285 0.93985 13.4376 0.833496 14.8056C0.93985 16.1731 1.43356 17.4817 2.25728 18.5786C2.55914 19.0374 2.82555 19.5186 3.05442 20.018C3.2567 20.5576 3.41832 21.1108 3.53822 21.6743C3.73634 23.0027 4.30147 24.2492 5.16951 25.2742C5.70441 25.7872 6.34618 26.1761 7.04843 26.4128L4.32754 36.2167C4.07469 37.0842 4.34579 38.02 5.02353 38.6175C5.66687 39.1847 6.58026 39.3296 7.36749 38.9887L9.72813 37.9491L11.2682 40.072C11.6826 40.6528 12.3526 40.9984 13.0663 41C13.2008 41 13.3348 40.988 13.4672 40.9635C14.3556 40.8003 15.0698 40.1387 15.3008 39.2655L15.6428 38.0455L15.9843 39.2644C16.2142 40.1382 16.9289 40.8003 17.8178 40.9635C17.9502 40.988 18.0842 41 18.2187 41C18.9324 40.999 19.6024 40.6543 20.0184 40.0741L21.5058 37.9658L23.9175 38.9907C24.7048 39.3317 25.6182 39.1868 26.2615 38.6195C26.9392 38.0221 27.2109 37.0863 26.9575 36.2188L24.2356 26.4076C24.9378 26.1704 25.5796 25.7815 26.1145 25.2685C26.9794 24.2445 27.5414 23.0006 27.7385 21.6754ZM13.1106 38.7368L11.5732 36.6155C11.1556 36.0342 10.4836 35.6896 9.76828 35.6896C9.46538 35.6896 9.16613 35.7516 8.88773 35.8705L6.52239 36.8282L9.24172 27.0249C9.32983 27.0473 9.4195 27.0692 9.50396 27.0916C9.56652 27.1078 9.63012 27.125 9.69164 27.1432C9.94136 27.211 10.1864 27.2934 10.4262 27.3893C10.9257 27.6176 11.4069 27.8846 11.8662 28.1864C12.2577 28.4299 12.669 28.6838 13.1038 28.9095L14.4583 33.7888L13.1106 38.7368ZM24.8028 36.9002L22.3905 35.8752C21.4318 35.4607 20.3145 35.7709 19.7061 36.6197L18.1718 38.6607L15.6631 29.6113C15.7653 29.6113 15.8633 29.5987 15.9639 29.5904C16.039 29.5847 16.1162 29.5847 16.1917 29.5758C16.296 29.5622 16.3987 29.5393 16.5014 29.519C16.5708 29.5054 16.6411 29.4971 16.7094 29.4799C16.809 29.4564 16.9055 29.4241 17.0024 29.3949C17.0707 29.374 17.1401 29.3574 17.2063 29.3344C17.3006 29.3011 17.3908 29.2625 17.4831 29.226C17.5488 29.1989 17.6176 29.1759 17.6823 29.1478C17.7735 29.1076 17.8611 29.0633 17.9497 29.0201C18.0128 28.9893 18.0785 28.9617 18.14 28.9288C18.2015 28.896 18.286 28.8501 18.359 28.8152C18.4314 28.7797 18.5091 28.7354 18.5868 28.6942L18.6468 28.6588C18.9121 28.505 19.1697 28.347 19.4178 28.1922C19.8766 27.8898 20.3583 27.6234 20.8578 27.395C21.0971 27.2996 21.3416 27.2172 21.5897 27.149L21.7962 27.0932C21.876 27.0713 21.9599 27.0509 22.0417 27.0306L24.7616 36.8339L24.8028 36.9002ZM24.4973 23.6685C23.8555 24.1679 23.0959 24.4943 22.2915 24.6157L21.9792 24.6924C21.2983 24.8389 20.6294 25.0391 19.9793 25.2904C19.3657 25.5641 18.7745 25.8873 18.213 26.2569C17.4638 26.8346 16.5765 27.2058 15.6391 27.3335C15.4514 27.3293 15.2648 27.3022 15.0834 27.2522C14.8884 27.2011 14.6981 27.1344 14.5141 27.053C14.0125 26.8179 13.5282 26.5484 13.0642 26.247C12.5658 25.93 12.0481 25.6449 11.5143 25.3925C11.4413 25.3587 11.373 25.3164 11.2979 25.2857C11.1222 25.2127 10.9403 25.1616 10.7599 25.1022C10.2724 24.9405 9.77975 24.805 9.29438 24.6866L8.81839 24.5725C8.07183 24.4489 7.36958 24.1351 6.77994 23.6617C6.23044 22.9203 5.87801 22.0518 5.75446 21.1379C5.609 20.4586 5.41037 19.7918 5.16012 19.1437C4.88642 18.5296 4.56266 17.9389 4.19303 17.3769C3.61382 16.6293 3.24106 15.7425 3.11124 14.8056C3.24002 13.8677 3.61278 12.9804 4.19199 12.2318C4.56162 11.6697 4.88485 11.0791 5.15908 10.4649C5.40933 9.81689 5.60796 9.1501 5.75341 8.47079C5.87697 7.55687 6.2294 6.68831 6.77837 5.94696C7.51972 5.39799 8.38828 5.04556 9.3022 4.922C9.98151 4.77655 10.6483 4.57792 11.2963 4.32767C11.9105 4.05397 12.5012 3.73021 13.0632 3.36058C13.8118 2.78032 14.7002 2.40652 15.6391 2.27775C16.577 2.40652 17.4643 2.77928 18.213 3.35849C18.7745 3.72813 19.3657 4.05136 19.9793 4.32558C20.6273 4.57583 21.2941 4.77446 21.9734 4.91992C22.8879 5.04295 23.7559 5.3959 24.4973 5.94488C25.0468 6.68623 25.3992 7.55426 25.5222 8.4687C25.6677 9.14801 25.8668 9.81481 26.1171 10.4628C26.3908 11.077 26.714 11.6677 27.0837 12.2291C27.6644 12.9783 28.0377 13.8667 28.167 14.8056C28.0382 15.743 27.6655 16.6308 27.0863 17.3795C26.7166 17.941 26.3934 18.5317 26.1192 19.1458C25.8689 19.7938 25.6703 20.4606 25.5248 21.1399C25.4008 22.0544 25.0473 22.9229 24.4973 23.6638V23.6685Z" fill="#FF4242"/>
<path d="M15.6391 5.69411C10.6071 5.69411 6.52808 9.77363 6.52808 14.8056C6.52808 19.8376 10.6071 23.9166 15.6391 23.9166C20.6711 23.9166 24.7501 19.8376 24.7501 14.8056C24.7443 9.77571 20.6685 5.69985 15.6391 5.69411ZM15.6391 21.6389C11.8651 21.6389 8.80582 18.5796 8.80582 14.8056C8.80582 11.0316 11.8651 7.97238 15.6391 7.97238C19.4131 7.97238 22.4723 11.0316 22.4723 14.8056C22.4687 18.5781 19.4115 21.6352 15.6391 21.6389Z" fill="#FF4242"/>
<path d="M18.1446 11.8444L15.516 15.3499L14.1663 14.0002C13.7195 13.5685 13.0094 13.5747 12.5699 14.0142C12.1304 14.4537 12.1247 15.1638 12.5558 15.6106L14.8341 17.8883C15.0473 18.1021 15.3372 18.222 15.639 18.222H15.7199C16.0499 18.198 16.3528 18.0317 16.5504 17.7669L19.9667 13.2108C20.2112 12.8855 20.2628 12.4544 20.1033 12.0806C19.9433 11.7062 19.596 11.4456 19.192 11.3971C18.788 11.3481 18.3886 11.5191 18.1446 11.8444Z" fill="#FF4242"/>
</svg>
