<svg width="45" height="60" viewBox="0 0 45 60" fill="none" xmlns="http://www.w3.org/2000/svg">
<path d="M21.1654 46.3809C21.1874 46.4446 21.2176 46.505 21.2552 46.5609C21.2922 46.613 21.3325 46.6634 21.3756 46.711C21.7697 47.0974 22.401 47.0974 22.7956 46.711C22.8386 46.6634 22.8784 46.613 22.9155 46.5609C22.9535 46.505 22.9837 46.4446 23.0052 46.3809C23.0341 46.3242 23.0547 46.2633 23.0652 46.2006C23.0766 46.1347 23.083 46.0678 23.0853 46.001C23.0817 45.7359 22.9778 45.4823 22.7956 45.291C22.7013 45.1981 22.5891 45.1267 22.4655 45.0809C22.222 44.9806 21.9487 44.9806 21.7056 45.0809C21.5816 45.1267 21.4694 45.1981 21.3756 45.291C21.2849 45.3862 21.2135 45.4984 21.1654 45.6206C21.1142 45.741 21.0872 45.8701 21.0853 46.001C21.0876 46.0678 21.094 46.1347 21.1055 46.2006C21.1165 46.2633 21.1366 46.3242 21.1654 46.3809Z" fill="#FF4242"/>
<path d="M2.22268 13.2534C1.96495 13.3527 1.76353 13.5606 1.67198 13.821C1.57859 14.081 1.585 14.3658 1.68892 14.6212L1.78871 14.7883C1.82854 14.8428 1.87477 14.8918 1.92696 14.9343C1.97045 14.9806 2.02126 15.0199 2.07665 15.0502C2.13524 15.0831 2.19613 15.1115 2.25884 15.1353C2.51016 15.2168 2.78207 15.2058 3.02607 15.1042C3.14097 15.0492 3.24488 14.9732 3.33186 14.8803C3.58409 14.591 3.65779 14.1868 3.52366 13.8274C3.47377 13.7089 3.4019 13.6008 3.31172 13.5093C3.22428 13.4136 3.11854 13.3358 3.00089 13.2804C2.75507 13.1705 2.47583 13.1605 2.22268 13.2534Z" fill="#FF4242"/>
<path d="M19.7203 58.8012C20.2728 59.5547 21.1513 60.0001 22.0856 60.0001C23.0199 60.0001 23.8984 59.5547 24.4504 58.8012C27.3944 54.8831 34.7416 44.7769 39.5258 35.4137C41.7899 32.4784 43.2726 29.0168 43.8339 25.3523C44.7984 19.0273 42.9655 12.5951 38.8116 7.7281C34.6578 2.86153 28.5937 0.0411994 22.1955 0H22.0856C18.5823 0.0215153 15.133 0.861984 12.0123 2.45411C8.89948 4.06043 6.21602 6.38729 4.18489 9.24103C3.96745 9.51432 3.77061 9.80363 3.5962 10.1062C3.4488 10.3333 3.39981 10.6102 3.46024 10.8744C3.52067 11.138 3.68546 11.366 3.9171 11.5061C4.38128 11.7812 4.97958 11.6434 5.27713 11.193C5.43461 10.9174 5.61405 10.6546 5.81319 10.407C7.65983 7.81187 10.1007 5.69559 12.9324 4.23622C15.7679 2.78829 18.9018 2.02289 22.0856 2H22.1904C31.5097 2.03983 39.5665 8.51089 41.6159 17.6022C43.6654 26.6936 39.1637 35.9955 30.7626 40.0298C24.563 43.0053 17.2698 42.5901 11.4479 38.9298C5.62596 35.2699 2.09059 28.8771 2.08509 22.0005L2.18489 20.1003C2.2531 19.4704 2.3712 18.8455 2.45909 18.2161C2.55065 17.6897 2.21922 17.182 1.70011 17.0543C1.43506 16.9906 1.15582 17.0392 0.927848 17.1879C0.699878 17.3363 0.542862 17.5725 0.493881 17.8403C0.394087 18.5301 0.2682 19.2195 0.194041 19.9135L0.085091 22.0005C0.0809711 26.8245 1.67127 31.5148 4.60833 35.3418C9.39021 44.7257 16.7695 54.874 19.7203 58.8012ZM31.6306 41.8307C32.6972 41.3139 33.7203 40.7119 34.6908 40.0307C31.0542 46.0907 27.1028 51.9552 22.8514 57.6009C22.672 57.844 22.3877 57.9878 22.0856 57.9878C21.783 57.9878 21.4987 57.844 21.3193 57.6009C17.062 51.9461 13.1055 46.071 9.46529 40.0005C15.9785 44.576 24.4559 45.2745 31.6306 41.8275V41.8307Z" fill="#FF4242"/>
<path d="M22.0856 54.001C22.6376 54.001 23.0853 53.5533 23.0853 53.0008V50.001C23.0853 49.4485 22.6376 49.0008 22.0856 49.0008C21.533 49.0008 21.0853 49.4485 21.0853 50.001V53.0008C21.0853 53.5533 21.533 54.001 22.0856 54.001Z" fill="#FF4242"/>
<path d="M16.0851 27.5006C16.0851 26.9481 15.6374 26.5004 15.0853 26.5004C14.5328 26.5004 14.0851 26.9481 14.0851 27.5006C14.0851 30.8085 17.1453 33.5427 21.0853 33.9447V36.0005C21.0853 36.553 21.533 37.0007 22.0856 37.0007C22.6376 37.0007 23.0853 36.553 23.0853 36.0005V33.9447C27.0254 33.5446 30.0856 30.8085 30.0856 27.5006C30.0856 24.1923 27.0254 21.4585 23.0853 21.0566V12.0682C25.9185 12.4262 28.0856 14.2751 28.0856 16.5004C28.0856 17.0524 28.5333 17.5001 29.0853 17.5001C29.6379 17.5001 30.0856 17.0524 30.0856 16.5004C30.0856 13.192 27.0254 10.4582 23.0853 10.0563V8C23.0853 7.44793 22.6376 7.00023 22.0856 7.00023C21.533 7.00023 21.0853 7.44793 21.0853 8V10.0563C17.1453 10.4559 14.0851 13.192 14.0851 16.5004C14.0851 19.8082 17.1453 22.5425 21.0853 22.9444V31.9328C18.2522 31.5743 16.0851 29.7254 16.0851 27.5006ZM28.0856 27.5006C28.0856 29.7254 25.9185 31.5743 23.0853 31.9328V23.0685C25.9185 23.4264 28.0856 25.2754 28.0856 27.5006ZM16.0851 16.5004C16.0851 14.2751 18.2522 12.4262 21.0853 12.0682V20.9325C18.2522 20.5745 16.0851 18.7251 16.0851 16.5004Z" fill="#FF4242"/>
</svg>
